%YAML 1.1
%TAG !u! tag:unity3d.com,2011:
--- !u!1045 &1
EditorBuildSettings:
  m_ObjectHideFlags: 0
  serializedVersion: 2
  m_Scenes:
  - enabled: 1
    path: Assets/Scenes/MainMenu.unity
    guid: 2f97a642c82b94e92b6b70b1f40acdaf
  - enabled: 1
    path: Assets/Scenes/UniverseBlue.unity
    guid: 83c5259ce47f84ce390194476f7a2f17
  - enabled: 1
    path: Assets/Scenes/UniverseOrange_Additive.unity
    guid: b2cdaec29530c42d38471392e9bfd6b6
  - enabled: 1
    path: Assets/Scenes/WinScene.unity
    guid: 581b9df46b69046d68c811ea7dc0235e
  - enabled: 1
    path: Assets/Scenes/Credit.unity
    guid: 66fc552143b0c435a98768ac91b9d228
  m_configObjects: {}
